{
  "mobile": {
    "version" : 1,
    "data":[
    {
      "id" : "setup-warning",
      "lang" : "es",
      "type" : "warning",
      "title" : "Atención",
      "action" : [{"title":"Iniciar","link":"setup-contacts"}],
      "content" : "<p>El Botón de Pánico es una herramienta útil para avisar rápidamente a tus contactos cuando necesitas ayuda. No puede garantizar tu seguridad por lo cual debes de elaborar un plan con tus contactos seleccionados para que puedan estar preparados y actuar rápido.  </p>"
    },
    {
      "id" : "setup-disguise-test-unlock-fail",
      "lang" : "es",
      "type" : "simple",
      "title" : "Setup the Disguise",
      "action" : [{"title":"Try Again","link":"setup-disguise-test-open"}],
      "content" : "<p>Parece que no se logró abrir la aplicación desde el disfraz de Calculate!</p><p>Recuerda: Mantén presionado cualquier botón y despues necesitarás ingresar tu clave.</p>"
    },
    {
      "id" : "setup-disguise-test-open-fail",
      "lang" : "es",
      "type" : "simple",
      "title" : "Instalar el disfraz",
      "action" : [{"title":"Try Again","link":"setup-disguise-test-open"}],
      "content" : "<p>Parece que no se logró ablir la aplicación desde el disfraz de Calculadora!</p><p>Recuerda: Mantén presionado cualquier botón y después se requerirá que escribas tu clave.</p>"
    },
    {
      "id" : "setup-disguise-test-open",
      "lang" : "es",
      "type" : "interactive",
      "title" : "Prueba el disfraz",
      "introduction" : "¡Inténtalo ahora! Abre la aplicación dándole un click al ícono Calculate!",
      "component" : "disguise-test-open",
      "timers" : {"info":"0","inactive":"10","fail":"20"},
      "success" : {"link":"setup-disguise-test-unlock"},
      "fail" : {"link":"setup-disguise-test-open-fail"},
      "content" : ""
    },
    {
      "id" : "setup-disguise-test-unlock-fail",
      "lang" : "es",
      "type" : "simple",
      "title" : "Instalar el disfraz",
      "action" : [{"title":"Try Again","link":"setup-disguise-test-unlock"}],
      "content" : "<p>Parece que no se logró abrir la aplicación desde el disfraz de Calculate!</p><p>Recuerda: Mantén presionado cualquier botón y despues necesitarás ingresar tu clave.</p>"
    },
    {
      "id" : "setup-disguise",
      "lang" : "es",
      "type" : "simple",
      "title" : "Instalar el disfraz",
      "action" : [{"title":"Aprende","link":"setup-disguise-test-open"}],
      "content" : "<p>El Botón de Pánico se mantiene oculto dentro de tu teléfono apareciendo disfrazado como una simple calculadora. De ahora en adelante, verás el disfraz de calculadora cada vez que abras la aplicación. Tienes que aprender a retirar el disfraz para acceder a tu configuración y desactivar los mensajes de alerta. </p>"
    },
    {
      "id" : "setup-contacts",
      "lang" : "es",
      "type" : "interactive",
      "title" : "Establecer contactos",
      "introduction" : "Estas son las personas que recibirán tu alerta en caso de emergencia.",
      "warning" : "Estas personas deberán de conocerte personalmente y ser capaces de responder rápidamente.",
      "component" : "contacts",
      "action" : [{"title":"Siguiente","link":"setup-message"}],
      "content" : "<p>Tips de seguridad</p><ul>  <li>Piensa acerca de quién puede ayudarte de manera práctica- No tiene caso que alguien se entere que estas en problemas si no puede ayudarte.</li>  <li>Diseña un plan de seguridad con tus contactos seleccionados para que puedan estar preparados y actuar rapidamente </li>  <li>Considera los riesgos- ¿Cómo es que tu contacto podría ponerse en riesgo?</li></ul>"
    },
    {
      "id" : "setup-alarm-test-hardware-success",
      "lang" : "es",
      "type" : "simple",
      "title" : "¡Bien hecho!",
      "action" : [{"title":"Siguiente","link":"setup-alarm-disguise"}],
      "content" : "<p>¡Tu prueba fue exitosa! En una emergencia real, tu alerta se enviará</p>"
    },
    {
      "id" : "setup-alarm-test-hardware-fail",
      "lang" : "es",
      "type" : "simple",
      "title" : "Setup the Alarm",
      "action" : [{"title":"Try Again","link":"setup-alarm-test-hardware"}],
      "content" : "<p>Parece que la activación de la alarma desde el botón de encender/apagar de tu teléfono no tuvo éxito.</p><p>Recuerda: Presiona el botón  de encender/apagar lo mas rápido posible hasta que sientas una vibración.  </p>"
    },
    {
      "id" : "setup-alarm-test-hardware",
      "lang" : "es",
      "type" : "interactive",
      "title" : "Test Hardware Alarm",
      "introduction" : "¡Intenta ahora! Presiona repetidamente el botón de encender/apagar lo mas rápido posible hasta que sientas una vibración.",
      "component" : "alarm-test-hardware",
      "timers" : {"info":"0","inactive":"10","fail":"20"},
      "success" : {"link":"setup-alarm-test-hardware-success"},
      "fail" : {"link":"setup-alarm-test-hardware-fail"},
      "content" : "<p><img src=\"/media/mobile/panic_button_activation.png\" alt=\"\" /></p>"
    },
    {
      "id" : "setup-alarm-test-disguise-fail",
      "lang" : "es",
      "type" : "simple",
      "title" : "Instalar Alerta",
      "action" : [{"title":"Try Again","link":"setup-alarm-test-disguise"}],
      "content" : "<p>Parece que la activación de la alarma no tuvo éxito.</p><p>Recuerda: Presiona repetidamente un mismo botón de la calculadora lo mas rápido posible hasta que sientas una vibración. </p>"
    },
    {
      "id" : "setup-alarm-test-disguise",
      "lang" : "es",
      "type" : "interactive",
      "title" : "Test Disguised Alarm",
      "introduction" : "¡Intenta ahora! Presiona repetidamente un mismo botón de la calculadora lo mas rápido posible hasta que sientas una vibración.",
      "component" : "alarm-test-disguise",
      "timers" : {"info":"0","inactive":"10","fail":"20"},
      "success" : {"link":"setup-alarm-test-disguise-success"},
      "fail" : {"link":"setup-alarm-test-disguise-fail"},
      "content" : ""
    },
    {
      "id" : "setup-alarm",
      "lang" : "es",
      "type" : "simple",
      "title" : "Instalar Alerta",
      "action" : [{"title":"Aprende","link":"setup-alarm-test-hardware"}],
      "content" : "<p>Ahora aprende cómo activar el Botón de Pánico en caso de una emergencia.</p><p>El Botón de Pánico es único porque puedes activar la alerta desde el botón de encender/apagar de tu teléfono. Esto significa que puedes hacerlo en secreto- Por ejemplo, desde el interior del bolsillo de tu chaqueta.</p>"
    }]
  }
}