{
  "mobile": {
    "version" : 5,
    "data":[
    {
      "id" : "setup-message",
      "lang" : "es",
      "type" : "interactive",
      "title" : "Instalar el mensaje de alerta",
      "introduction" : "Este sera el mensaje que se enviara junto con tu ubicacion.",
      "warning" : "Asegúrate de que tus contactos sepan que hacer si reciben este mensaje.",
      "component" : "message",
      "action" : [{"title":"Siguiente","link":"setup-code"}],
      "content" : "<p>Tips de seguridad</p><ul>  <li>Considera crear palabras o frases secretas en tu mensaje para que sólo tú y tus contactos lo entiendan. </li>  <li>No tendrás tiempo para cambiar tu mensaje durante una emergencia, así que crea algo que pueda funcionar en cualquier escenario.</li>  <li>Activa el rastreador GPS desde las configuraciones de tu teléfono si deseas que tu ubicación se incluya en el mensaje.</li></ul>"
    },
    {
      "id" : "setup-disguise-test-success",
      "lang" : "es",
      "type" : "simple",
      "title" : "¡Bien hecho!",
      "action" : [{"title":"Terminar","link":"home-ready"}],
      "content" : "<p>¡Felicidades! ¡Lograste instalar la aplicación del Botón de Pánico exitosamente! Asegúrate de que te acuerdas de cómo retirar el disfraz de la calculadora porque te hará falta para desactivar los mensajes de alerta.</p>"
    },
    {
      "id" : "setup-alarm-test-disguise-success",
      "lang" : "es",
      "type" : "simple",
      "title" : "¡Bien hecho!",
      "action" : [{"title":"Siguiente","link":"home-not-configured-disguise"}],
      "content" : "<p>¡Tu prueba fue exitosa! En una emergencia real, tu alerta se enviará.</p>"
    },
    {
      "id" : "setup-alarm-disguise",
      "lang" : "es",
      "type" : "simple",
      "title" : "Instalar Alerta",
      "action" : [{"title":"Aprende","link":"setup-alarm-test-disguise"}],
      "content" : "<p>De manera alterna, puedes activar la alerta directamente desde la pantalla disfrazada de calculadora en tu aplicación. </p>"
    },
    {
      "id" : "home-not-configured",
      "lang" : "es",
      "type" : "simple",
      "title" : "Botón de Pánico",
      "action" : [{"title":"Instalar","link":"setup-warning"}],
      "items" : [{"title":"Acerca de","link":"setup-about"},{"title":"Configuraciones de lenguaje","link":"setup-language"}],
      "content" : "<p><img src=\"/media/mobile/home-not-configured-small.png\" alt=\"Illustration\" /> El Botón de Pánico convierte tu teléfono móvil en una alarma secreta para que tus contactos mas confiables puedan actuar si te encuentras en riesgo.</p>"
    },
    {
      "id" : "code",
      "lang" : "es",
      "type" : "interactive",
      "title" : "Código",
      "component" : "code",
      "action" : [{"title":"Aceptar","link":"home-ready"}],
      "fail" : "Si has olvidado tu clave de acceso, por favor, des-instala completamente la aplicación y vuelve a instalarla.",
      "content" : ""
    },
    {
      "id" : "checklist",
      "lang" : "es",
      "type" : "modal",
      "title" : "Lista de verificación",
      "action" : [{"title":"Aceptar","link":"close"},{"title":"Cancelar","link":"home-ready","status":"disabled"}],
      "checklist" : [{"title":"Revisar plan de seguridad y actualizar contactos regularmente"},{"title":"Prueba la alerta para asegurarte que funcione"},{"title":"Asegurate de tener suficiente crédito en tu teléfono móvil"},{"title":"Activa el GPS (si deseas que tu ubicación se incluya en el mensaje)"},{"title":"Carga la batería de tu teléfono completamente"}],
      "content" : "<p><a href=\"#help-charge\">Consejos sobre seguridad…</a></p>"
    }]
  }
}